
		       Tally Sheet for the votes cast. 
 
   The format is:
       "V: vote 		HMAC_SHA256_HEX"
 You may locate the HMAC_SHA256_HEX corresponding to a debian login ID,
 given the associated secret token returned with the ack,
 by running the sha256 hmac function. For example, for login ID srivasta, and
 the secret token 0123456789ABCDE, the following invocation works:
   % echo -n "srivasta" | openssl dgst -hmac 0123456789ABCDE -sha256
 The vote block represents the ranking given to each of the 
 candidates by the voter. 
 -=-=-=-=-=-=-=-=-=-=-=-=-=-=-=-=-=-=-=-=-=-=-=-=-=-=-=-=-=-=-=-=-=-=
 -=-=-=-=-=-=-=-=-=-=-=-=-=-=-=-=-=-=-=-=-=-=-=-=-=-=-=-=-=-=-=-=-=-=

     Option 1--->: Jonathan Carter
   /  Option 2-->: None of the above
   |/
V: 12 		004c6d99f443393f8b6edd4a2d88c43c12877e33eab562b9ea2c371ee36bce68
V: 1- 		018113dad66f5d845becb82f91f09e09e48cc32387750eba871443a8b0d16fbc
V: 1- 		018a8c54475d003b55d1a4cd4b9d2b528828eae853d5f03867e6f214bebaf089
V: 12 		01da4fd052c0d9b2a2de691bed307073c9a73267d2a63ac1dfd45aa270a8bb2f
V: 12 		024b2e4b5f43b446f9033fd30800f4ea47821f5a280f2af139c7cdce683f61dc
V: 12 		02910bb1a7e0b3c65b2a6e5d60a9ec875339a8f228544c335dd20f882dad48ba
V: 1- 		04bae1282d61fa116168d4fe143eb659aeb207d21d43a64f70267a2e4ad19399
V: 12 		05d159e6b6edda0782b1fef96bd9342a2c6481797612c4531d9c660f1707cb4e
V: 1- 		074011b302d151eb776aef40f8866d511900f6bc351f7655d281911aaeab875a
V: 12 		08df7639288d846e20b455afff149eb70c0cbe2fa227494b67a46160f34c6fe3
V: 12 		0a0e57db566c8ce451dd93a769c4dcc445e097ad6a095496636673245de5880d
V: 12 		0b7c70ec4bac5a7613e8e9f0644a435c01beac3325e20bfcbdc1e5da77ec4529
V: 1- 		0c7faee8247ed6b07c7caea75b24861fad5b60ec40beac7402e61022bb7bc699
V: 1- 		0ce4f1ca70cff2d5109320fa2f47f671e8b77a71e7c19fb87f40067a9b4320fa
V: 12 		0d9b58e1d6942fd3f9b81926db94544ff2eb0410621220632b82ac182e642f69
V: 1- 		0e628e96f0b29c5be49dbcaf4a7332e074508c41e140ec060b95fbfddd416649
V: 12 		0f62be900604969b4db7f9759ad60333a4e275b13b51a6016dce73c9119cfb3e
V: 1- 		102ccfff8c78e5a0ca73e216a60ab8911ca9bff7eaa3b8bdb64c85ff5596ef2f
V: 12 		12f0175b34911cdd84164ececf5d6dfca5b76e23908f6c8f1ebe773de8edf47e
V: 12 		13a946f263364957d1235d0c5b499883c8a36aef7c8e6d5d5ea61b589afa9755
V: 12 		147210a8bb86f2192b32329e9ec522d6ae1f552d04e657f29fda69bfa22c4750
V: 12 		14a18d3a73e46444b5b7ef5e45faf272f9a51b6497a8d780149b5eaf48c2e924
V: 1- 		1566f36b36be2195fe9c29672f4a50d6677188e108a372cead7c213664015630
V: 1- 		156a8959e55123b7162f5661c1d9cfdee9a5202b1a48828282f0df792dc1898f
V: 12 		15c68d362eea467b55553935bd01eb61481b01098a9dac68e182360b7042ac68
V: 12 		165165a7b460a442cfed9c9c1cc029d276350850a414346126582fabfad221ba
V: 1- 		173a7972e910e6a8f52e0709c39200ffc2c44e8f314a32c95d65f0073baacf71
V: 12 		1a05c60045f862d3a49446c433757536f2c71f88900d2d89efd851eb24fd4bbf
V: 12 		1bff50937a06d03fd3e4044c6ad4d477593487590294af94d2a07778d2d6de4d
V: 1- 		1ccecf14619b0359f411105a9b1c673de64c51744d78a3b5f96832b2cab6113e
V: 12 		1cf284991ee2bf30d2df3c2dc1acd300f7f0370055897fa884d09c6865cf8702
V: 12 		1e4204472bded1acdde9ab66928bcd18b84357e87c6e52d3815f1b0ff83b34e1
V: 21 		1e8040971354b9434b5e77fa8be4c7a9cbbe83541e4cd7941cce6350994a2680
V: 12 		1f1daaf5c3a074916e1c4504a84be5c3352e9a6d499be7c09f23910b26fc091e
V: 21 		1fe81ad701a2cae687893ec55ac72bc4b6330695085bbde018e268d9dc8b3706
V: -1 		2036877dfe3c6aa75807e3f9f408bb2c444d36a5302e9c36a7f3ced61c384224
V: 12 		246469390993361618a1ba3ec65ea68dd4651ab1ad41739f24cb3cb9f4b00b32
V: 12 		252de2df6e744580e560e3dbad39cd351a17719c579e0222df295af4fa06097d
V: 11 		2588b4e8e0488125e8c62d0596eb284fe392f4e7010f4afd64ba2f3bf4819386
V: 12 		25a56cb3f25639e2b58fd39f4396f8550b213bebb1fe2913c28f96a94be6780f
V: 12 		2745861ded9334adeb08667a89c5a7c8ea6f3299af550a554bf33cfd9d55bba6
V: 12 		280d53bb23df3bd86ddaea9755aa1d7df3f55b173c39fbcf45e7082008ce06af
V: 1- 		29550b535d2d2ce092fa5688bd5b31d5648469174715b5cfde983276d6d60b92
V: 12 		29b3b7f48df9744d1e66fe0b395f02b38075e7c32d4da3c11825ad2d27bca649
V: 12 		2abf9f454095e148ba2eb02ba28928931d1ea7b54a4f6b827b30bbf5ad13fe84
V: 1- 		2bd81fc473387e0a2f88f4bc693e1b6742ea0090ffcf5b7c52c10240df6f4801
V: 21 		2c68f0363e1c519d86111faee7e3081635ede8955afd60333130e458d259327b
V: 12 		2cc671b61992cc624bcaa564194736f34ad71b6f2aec229e45746316fa9d5bc2
V: 1- 		2d833da1c149688236b7efcb965ae339b15b1158afa5a347acb3a7cee93495dd
V: 12 		2f99a0fdbe6199b3c719272aaa758dd2afb6f7aa25fc883a2a44333ce4e9445a
V: 12 		2fb46c2b04f14ce1ed7a2c0548abc2ca4178be1b7d73c446a16b01bf7de52a12
V: 12 		30a743b75cd63e505211115263e6041b623401b51690489c724308f57f95cb29
V: 1- 		30d5cbf5cb549769ac7aa37246752cb0450456d9d487f725ea8145736a105fdf
V: 21 		3122e395686d7fb6767dbb3f50e8bd4594963968e022c01ca497c028e1b02469
V: 12 		3165aca6a57d63a6f8f700c9d3a884e10d976eaaf0d9e025b25ac23c6c91ee21
V: 12 		317d51bc6b9789287cb587e98ab94649630aa223d37db34dc41791889b2507cf
V: 12 		320d8eeb2c0f9d46437ae47dcf4156dad06717c3378d120beb623c13af3dd34f
V: 12 		32427734c84f621124e4c31736d01e5418942e1d8311f8d1d3b6b098b1857c0e
V: 11 		335bc37a1a9c3bd244ddf05c6aaf7be7cbf31cef67ca5583f8a764decc6f558a
V: 1- 		35035d7e44778e01454318912dac5bf722f65bea6eb43d8cc3266f86b187b063
V: 12 		355d6b35cd26be2edd29b6d09110517e16671d7cb03aeb6fc1f76e8c559a2577
V: 12 		37bd98edffcf5bdb72e854a2a63ff9b97708781f575526e3c9333b28b35ab754
V: 1- 		39c5d656140dbb770bb7da065a69d81bbc5146b7fd68f4504ddce6ef5066347c
V: 1- 		3abc5d7f6e3047aae6808317e27e5833755bafe59c45aad4ded5833cef602eb0
V: 12 		3c5c60999d7ef6d563cd8d6b9b0a225986f565e1965d803d0adeb985efb8e878
V: 12 		3cd928e63b909a6690159f85fbcec368a9da1baad47758223bc1245abc2beb2a
V: 12 		3cff3564776f288aa084214242f228d4ad69b5f4ae963718395c94251ad44e23
V: 12 		3d08eae486ff9d0b9e70041f0f7e7837ff2859675589a30c807febb2c641dfeb
V: 12 		3e134221a2ac293486c9043d7a4747e4dd67950179d1f4da08b534215918acec
V: 1- 		4105d2ad44df13aff46607f060da55cd782dfa66b6a3350b4a4f00d3b247c603
V: 12 		415a53c48ed7f3e2034a605879542b3f7e6529370375aa86ad2a01b7476f9794
V: 12 		42e8321fd2c4432f2a86f14a21cc670d63ece54e2a34f7e812bb654f02c09570
V: 12 		4416fa06453873c7b2f6c176483830ee48197401a2e5c8168284ae4cde22ae7a
V: 12 		44dcd89513f366a014dd97d1e8a7b4d058b16dfb333411cc6737b6ffad4e2f81
V: 1- 		4640d6b16884055750c8661f9ff60080d4d273f7f9ab346926c8bce081870854
V: 12 		4716dd5d929156113f635989faec45c114ff33aef1d26489126fc04d818da193
V: 12 		47cfdb6f2402ea7daded9cff7aa6b8e9dfb44e71dac875ebf3f8d4f690b4fc99
V: 1- 		48b45cfc443dedc96d40255457fd4ed7df155f8f6a5873c272f3b55244dd03e7
V: 1- 		4a35e711e8dacd77d248adaae8ffbdd82fa217c2acdefa7f693fd5103b2669de
V: 1- 		4a386ec92f1683222ca0a4be6db64f238d7d4ea216510c65b7494fa2797ab108
V: 12 		4accb3864b403a2c3cfa7b9d4acbdda62f21d9fe6ca7b9d426bd9728f94e6a69
V: 1- 		4aef876ab81b993b65dd56c35d6ace84d80e0916ad29d7556174b8f79e8433af
V: 12 		4b600ff3e9048fef925f72833b512f461e94f11fcf088ab431c7ebcc486a8d12
V: 12 		4bb0bbb21c3c6c211cf8faa9d2b95a032ce47a60ab91077f44aa9670ce742250
V: 1- 		4be94b759beb5c8c02042f03d1bac8b3df9e6c90dc255179cb1dae8e1fbbc559
V: 12 		4cb0084bfcd7a6a84e196637f78cd0c2f86e92471204c53404939f0aa13bf248
V: 12 		4d4e119a637d867b63d70203e4396a4d44ce6cad56959c9819ee197d2f2e78e5
V: 1- 		4e276688a12c234b34272b08e45b1e5d57cc40a3eb0339167bb629a9fa3604e3
V: 21 		4e9af6d4932fad462debd33391595f75d67f13176538fd1f230b33cc67aa4a47
V: 1- 		517923d61ef51c5be9de766ea63b114097dbf2278e5a3a4607ddc038d19f0bff
V: 1- 		523bb24c14a8763ade5a83bc1428368adb46ed4243c2239d7d64952a3f37b7c3
V: 12 		5334be7415079aee8c3efeeca7876844fe1c836844ea7b5bb4fc00a6c920f720
V: 1- 		53b722868641067206e89b943cf5b61028ea092c7807eb2747e09ebb70e1563d
V: 1- 		5429efb51679ad955326f7d82c346da9a0440f74860a64b349406c139116cfe8
V: 1- 		548a931711516b4d38f9bf394574a50b9b2601fbaa345218e42a6e37a9125c4d
V: 12 		550f2c3be0ff657b69e5d617278fa22242db7e05d8ac6e3ef7d0df30fdb1dcd1
V: 12 		5534ef41883cb3ebb9b148eb66546925b396874899368d8494bbb4351e580e45
V: 1- 		557b07f7b6cc270816db7360239eaccbd556110f9dba36c4272223b06b46bd45
V: 12 		56a39de4c32816abf0fa672210318e4f61fec344fec4e3e79924daea2c7c3177
V: 12 		56d625b5371a7b2f5c1be2a1cb493f507db9667f9ae4438df52c5add8ecd7b0b
V: 12 		5715f4959031c63a2f7a1f6dc79f63972069acb6af52ea6e9f6e40bccdb29920
V: 1- 		5831b9d8da5af9fa8e7ce8e3eed1c216cb4f7da47d555b61db6bce29a24aa791
V: 1- 		596817b44c9a20f7cdbefc132ee7c9c675a673fde3a77c13b3909c9f4e2a1614
V: 11 		5a2a6dca04640134835bcbd5d9183be1f931d2901870dcca559c542fed7dbfde
V: 12 		5b06bd18e57c2f11f10093bbb66bbb996f140f1f0eee32db7ef5817712b7de0e
V: 12 		5b5ccd2bcae3ea7282ca68e4d3f00242af9e47088b316bca179215739ab2b407
V: 12 		5c4843b8f5c47a708c64cd9a59d14d82d73b16d48afef7c9fce39dfad913a961
V: 12 		5d26cb097fc7b5aefe445421422fcfd1a12b82908ca7e365f48ca5c034e4b189
V: 12 		5d37a5c5c7d5a20db8fbb159725de3d6e1fdf30671e7c9e5dd39d2ee8074fac3
V: 1- 		5df4a9c5d0a0d5796e07f76af4418902cb6054c1b48335b0ae8122a4a48715fa
V: 1- 		5e2ed0f596ad86bbb5623d9d7ad7b64d33dd58e90a7711960adcb4a409429ed3
V: 12 		62f07a407a2a03a6053dc6bdc0eed0ac36409ce243fd61116a7bb56f8ac97f6a
V: 12 		63548fda7fb564b1d56c1f0d059406a83ecb4c034cdec7e81a8ae772da90e516
V: 1- 		63caedf15da25cbda8c847e47f6358af3427383dc6e4297b0094857b8a5575e0
V: 1- 		643944645090cce4284c404f5e4046ac462762c228dd0242a89cc730f992d07f
V: 12 		64b6ce1d728ad1ba90209af9205b51181a8eaaabf9ce6d2da8522ce33aad735d
V: 1- 		6531e182bccb951f58703ada9b05651e0ed83e789d258fe5834e52c0eee30a15
V: 12 		656dda0d4ca110dede5531c53defd50bffcbb76bcfd7161d3f853acabe903041
V: 12 		65ecf8c501eda6540fef5f99d0a2558978ce916b7bb39437a28807776610f0c2
V: 12 		676679e772bda45d632c0efd75dce7ca224421424ef581294092b9307e07eca7
V: 1- 		6864dd481c15caec845a2dc61e8a9760d351bc8dc0be5ac6b0472b91b9424f40
V: 1- 		693b47514dae127945f9158b5b275f605d7770b93a3c88f65a9f8951a2b92e7c
V: 11 		696c241dbc9776eacd0f63c2c80321376b8a36bab57318c1e82d3fbd31d15e41
V: 1- 		6b5b882505afae80907ac582cfce591a05feac3ca0c20c79159945e96c0731e8
V: 1- 		6b6f01ea7a004ee4f7b516565c5423df0d5382b8db8ac9bbb54928f80e65976f
V: 12 		6c24e76984b517bfdcdbcd4843511bdcc4567fb122fd776736b6e2078e04a422
V: 1- 		6c99cd412cfe8cc354f0c236a6c1cbb674161653a6cc713f3d38d1832b41e9c9
V: 12 		6cc7b7b06591cdecadbf428181b0ea5b1d708460994299529f66840ddb6fa90f
V: 1- 		6d7aaecb4034a7e0875439074df10f2e83b002ba183391cd7993d1f824812db8
V: 1- 		6def5bdff24a1315cf91e27e775d74a6592daddb854a31ae5db9e63085277def
V: 1- 		6e165189f4260c63e7ff55ac2ce432703d23df3bc31c971299cd2555ae1b188f
V: 1- 		6e960c03aeb647facf0882f11a34c092e256a165089b973d76c0b9456ce83645
V: 12 		6eb0fe0a18633ddd533602c1ad38738e2e707e8a67114331cae54cff8fdfb693
V: 12 		6f16762ac9f733734f356b60ffe679b27a9ebe1cf9bab846fc12c5f70bc92254
V: 12 		6ff1ac1fb637c65ab5058ba5af4956dc86593ce27bb1d3cf7a2702a2bf8e3ae6
V: 1- 		70aa2eee2a215eec94ad32830255ca68c6bb7d34201f63a646aca04bc96537db
V: 21 		7264dc756c6116cf5f1ae8508779ba4f79f7d174192fffb466fe728a7b831884
V: 12 		733637b77f755fa802d780932f0a5bb430febc212f3f049370ba0061d0363086
V: 1- 		740adbb7328a5be759ed0baa48ee7378dfe1437bf83cb745ee8e416a08a1e77d
V: 12 		74623a5d6cf8cc9b0161646a41a1c4724a5efe506a305e5d56b75c7206859753
V: 12 		74f0ed331f6027fe7359ce87195f0816f04d24f60409f62cb630e07394edf991
V: 1- 		767f33ce6e4c725f2938844f515dcf5a9e3a9bdc8644ec286c7b26fe8e3207a0
V: 12 		7697fff21411b4ffc74a9eb24731fa93d363102ebdd9ee7e904fdf70d8c7d912
V: 1- 		77232c41da521d038ecf3945bc2fbd468fa177df2b11152dc10f88eb2ee4d2e7
V: 12 		7827783f0095895a3282268ea2a717b6f6e564994ae8c7f474ce4ac8d8ee4a6f
V: 2- 		7acb8ea8472b1a6aaadf48a8098ea4dd3b43472b74abbe64f3a6ce9e69655333
V: 12 		7adf67716579d68d76d15d5b0bbaf2093bd9e21fe52ed8aa2a59fa3b6733cc20
V: 12 		7b60a866619d20eb6bb394ea36a0557861f000ea374b78defa508c71cefe03b5
V: 12 		7b6d8bb5e62c88e3d3a5ebda11d4469fb7aedcc2c724b31a3c0d6131fd83d722
V: 12 		7c3bca9b81b79278e8ac7bf6d94de5287bab1b09204f9291c7a532471830596a
V: 1- 		7cd401902dece7bd0dec8f0f5cb75cdd31b0c0e207b4e990fabe0396bd0f2289
V: 1- 		7e28992501564e23f980483f24f11298516bd8490acd8bd386fca7ce1b921a54
V: -1 		7e84fc1c6cd12cefd5e01c3310ddc68e5d19c1f98ae010f520502cc2994c0bb2
V: 12 		7ede67708bf91936c7f648c45fd12663ffb122413acaa8f65d891b518303d1cf
V: 12 		80f6ee6a1f065d81dd1638d9294a2de15075d999799e539d3588ecbcda0915e3
V: 1- 		816e1a65a657933c0545902ab1cb4bf4e4bf806e8aa01ac9b57e36e9b5e46ebc
V: 21 		81d6293e272ff634c0ecb04b38e991e9705d5ba09ec9d0cf5339f8dc8f102d51
V: 1- 		840008a7f12e43379bac70cdd441a8765e4ed15cf85ab0f57d6c1aa323409e15
V: 1- 		861382f6eaf22c334cfa481248b0c8e12384f1994960cb8962878d67e39093a3
V: 21 		866554731fe1ecb1a69eaec321a3723265fc90b808f695fddc2c8864ce4994d2
V: 1- 		86e82153219b9e91bfe0a9cc4b46f59b5c1a5a84369ca2ef778311ae90153be0
V: 12 		87e1a695172a7ff56d5a8aadb989137027b36cdb17f1ffa40356f8676e3cc6a0
V: 1- 		8807eba1a8534f9f5c33fe6b135ed531591e0a267d2920a9266a362719ed11c8
V: 12 		88421f8ef722ac1d494d302a9306218a0a19358c82c6e71131a7fbeed164f242
V: 12 		88876f23646de76b14bf82e88ae197dcafaf4426db4982e96596e271782e57ed
V: 1- 		89a53d829a38ab5fec808ada48a1b55c6b440cede40b355586ff4a0a3a3b843c
V: 12 		8a9273c1fcb267c5034a78f801e1ce674430b27ca33790b9c8f4ca47593d4bca
V: 12 		8a94f142254f51c1eb511def77b16d9a32fbdc5098124afac81602309a12710f
V: 1- 		8b8dc306794be3d594b87a403f7624d33ff92c681973701c7f240cfaec861096
V: 1- 		8bd47b51595fda2e892816e25c330eb46bbff58527a690a44ea43bf099fb1b45
V: 12 		8c4629b30fe19f1a579dbea136e8a66e65808086f2802d6f7aa366508866eb18
V: 12 		8c9b8ea85babda1d9d6e3459b8fad63c43d15ac6e5a8f864247663dae4480c34
V: 12 		8d4deb3ff600e495a362bc4df1a77723b9499a595fbab1244cea1ba4b7ef765b
V: 1- 		8dae3c5e7867e509fe2c1744131966b97de69a659bda62ab8bc26ce5673cc3bf
V: 12 		90371dae54c5c59e8c72bf2296bf48d8fcf11e38c42023910458239ba42045c9
V: 12 		9150eff694a2e589bc037333d3d8f9cb5bfd3f3567694c289fc18b181f647439
V: 1- 		929c7dbbabd3d4c82f3d024e5725748db7908a946c0217db3f98f011f681ea27
V: 1- 		92f339ea348bc8b7ab96c01635b7ab269100021587a2ac880f5ca27ba45c0804
V: 12 		93b484b9b8622ec5e0160549af47ce8d20c2761fa2ea0285e9f52931e20ff0cc
V: 12 		94c912d31c3a4357c8721c689f687618913a3492538094a38936c6c62b410320
V: 11 		9551ca87b54609699f9fcf941cb3601926b0625bf397846d1163007fbe461653
V: 1- 		9569fc0f7939cb25e2e04ed18e27d3593fbdf795df2399443549800376caee1c
V: 12 		97233eea308be9771370a3ada2016af838c7d20f415f63ce0d8aadea7b9b6c81
V: 12 		9750631c5457a2f94cec0253232603480fcac8ec28d32aaf63af85f0eb1fda02
V: 1- 		97d08c926835e502dc1fa053233cff0c02dde2f0f347f022767a9a43242d7019
V: 12 		9877149e7c9008b6b7b26650bcd782d10777c6e9e071f46399ca72a1b95ed341
V: 1- 		98b5343cf4915f136d2f8b70fe15a22b28f369324aef0773f4f0f18381fe8733
V: 12 		99608d3e6104cff708655910e4f08bca551d0c481315802455c793bac0497095
V: 12 		9a2c93f6abec1095a92dce5ad26938d556ee1c558f0a409e42b4278587942e80
V: 12 		9a8a5746d236f7e81ee12f971779f7139e7c089a12b481a30fa8712bb06e9ec0
V: 12 		9b74adbe038f7a58437d9f247dcbf8b6710d839f52b9eb5289cc03c0fd1925fa
V: 12 		9d49e49e50d0dfc06bf6a13dd5b9d9856836bc31fa080583ae466df2386c7b0f
V: 1- 		9eff181546f5d9eb0b40760d7accbd80fa5d4b27240558f545b98445ab974846
V: 12 		9f572dda695308e5d89f2f2ae72b5a57fcee012653b4a2ff6b218c48c4e5e3fa
V: 1- 		9f7d48d4a77074ef552bd69de48fcb815097371b04cc1b3b58cc8455c7f5c3b7
V: 12 		a10db2b62a7cc5c7e8b308ff1072c07147cacdef9df63ca6609a875038ebbf03
V: 12 		a25374c03883ba194122497e568a5279bacc1927a61f1dda4794564cda97d3b4
V: 1- 		a25a6a81d3d566693347193629227da74945a52bbce789879450be7460dce775
V: 12 		a523e79c2ad137191c375bf8e014dad704bec8e56708f081cca7eb2c8373fe58
V: 12 		a6313e3b7ccf546c4ff2fb3c4745498e9b81e058b062230fd1e9b54611f33662
V: 12 		a7d9a8bf31ea43181c2679e4860aaa08f2bdeaa99feda8655361564d64380ae5
V: 1- 		a9c046a736c13516749ba34e19ec3c297967406c4c71f10697be642b11b999bb
V: 21 		aafb2019c59ee850eb362bb17f2cdd25240d9bb19b6de6095fecdeea3f093e04
V: 1- 		ab701529ee006c66aa93d3e5f1c9d2b68175c83c4633cc8c0d331afb2db292a3
V: 12 		acc3551bea61d79d773f084ce1e5f0ec526297f9ba4b7852837588096722fd48
V: 12 		adedd2f054c8ba2e08aa8ed30e73f36356b542701a5a0c05e2df5d5c8f4fce9e
V: 1- 		adf7fad05ec1d3bafe0a2ae68393ee0dd84fb390ddc7aebdc6810930138659d6
V: 12 		afa5870f16eadc1fecc04a4e59de0b5c4c17e5196f794992bf3fdb4e6dd6a0d2
V: 12 		afd85f8f1e317490c3454553577d5c0f7bf5c9f09ace58994154f6628874e814
V: 12 		b0500ab725f14cf3071e1aee332babd71565f956f8adb5495f60b3d67bd1a894
V: 1- 		b09f2a2c25f576bf4f5fc92d5fea91ce79a204d59c836ba10703f488fd7b1421
V: 1- 		b15268e55a59ec451fd42466fce4e12f3920eaae40ddb16c42e1c020b469f501
V: 12 		b352e25b3046fa458493d50a5e2c8140ffaf4ae5972f42d29ccee51f9c02ef47
V: 12 		b39ddd8f6a194ba36288ec79223461326bdf0718b68db2b3eca63d4636ba4bd3
V: 1- 		b4c6c80d6372ca3a05ccbb69b42f3ca259b0525ec7eea28d91a9b483ee4f94ae
V: 1- 		b6e485b201160a3985b662a9446ac80725acd0d9c5450842103c1f887a8b3b18
V: 12 		b77c818027c799e72649be9e7dfb1f77de206f0988a3914889859d14aedd1209
V: 12 		b9783f607b18c21d23ad163cc3bb56eec3f08fbf658b312894f0e1772ffdc2b6
V: 12 		b99e1ce1998b8b820a3f5ea630cc56dd0cf5baadff696fb0b260860d995f362b
V: 1- 		bb8aa96fa10830ffc427115eb03dc36a7ce3f02080311913f93d986c21d6e6a4
V: 21 		bbb95dcd26b3edc336eb0f676f55c9e8857d1766c741c6f2f5064884dbe1f2f6
V: 12 		bc36b85dca42c246523c24bc73b16b611176b81a6e5ee3b15c2c1b0171d39cb2
V: 12 		be5b332fa043ec8e64ad0231f4fe5182ddfdaae53404de56e062ea6cee86c76b
V: 1- 		c0e5ab8dc0de149a821112f07c1b9fd53d003f00737d9f884fe26ea76f8049c5
V: 12 		c1a512360a0e61efcd42bda051464cc60975dcf4c0b38d0e2f41e221de456097
V: 1- 		c44425ba2987ee55575607352cfbf69f8f6f8f92c036406f3cbf43332e558366
V: 1- 		c4d3343feecd3f48083aa4b5f774737b005b9e0b12bc4dca5130e992844a38a1
V: 1- 		c737b6dbe63f755ca9b80f49469a79773e9f0857d94fe6341c61ef0cf68f9191
V: 1- 		c836d540fd14e0b612e60004d40493c37cf965c08ab76e401fa34915cce74f1a
V: 1- 		c83b38a84708e96aa53e6b4d6533818ebaf9e80cd458e25c9df5feacffe70909
V: 12 		c880bdad4a567da9d3cd3de678138a979c51e8e4bd7e2247161154e8e57d1c37
V: 12 		c914e233cb974dd4fdb187dd08329fd047c1555a4c32efbc745e18448bf14775
V: 21 		cb6e72c2e6be323afcfb0c2938998394ec2d36d05314908cdabd093a25100194
V: 21 		cd93d5713602571e8f10856ce7cf107ff7c9128edd737cc753a9483c8e132636
V: 12 		d0bcfd5d220b2b2a38d04fda73472ff9108627494580ac8864679de984ba0dbb
V: 12 		d169e98a17c8141d99322f851cb018ecfcd440f0019c0ac214e35a9f7808a276
V: 12 		d35f6f894aee863dcf6e2b303aabf31887820e6c62bcc177d2d2fb791de3c6c0
V: 12 		d46d7c3eab2e89fcc9b2abfaca1d908fa2b7c0c9c9780796db4a5066ca86c603
V: 12 		d484bdf3adb0ce4482e13b4ef3497536dd09da764d6624876fc192aed204059d
V: 1- 		d63cd839bbd4b71a31bfd11bd991a6a80c8aab8edfcc6d6cf4e84a98173a8d56
V: 12 		d73fd531eadc6a9dad47748d2b159a78c8ad1ddae6f8daccb296b4b3acb5dfef
V: 12 		d7b138417e5c5d55d6ebb5324cabe16515c74513f096135b1c13de65187f33c7
V: 12 		d7e257ce678aa8fab2793ca7ff258c16dee846bb09b9c22934dd8444bb00deac
V: 1- 		d876fae7580c20adefcfc5f357b51f373307ac81409da9035349e1b61c6b37e3
V: 1- 		d99d15d46d7d51eb697718ce834f9a293fc6307299aec8d72cba7b749e7cbec5
V: 12 		d9bec6c8626efc34025beda72f7832d10e3209ca741b0db433bc9823c04d84ac
V: 12 		d9cdfd5369a0a42720d1cb6eb7537a6c744c28d93898f7f6dbc1a050b5e2d983
V: 1- 		dc4d8bd37de82d8231071698ed2a9f3ad22ad9180b200a88039ed4507cd44bdb
V: 12 		dd0890b1fe5f742a0ebac5141977304468848f8c9d4562d62588dfb90d5d14bd
V: 12 		e15a9d17b416327156e10a847db4791345b68c3657e080e5602ebf72fc3d57ee
V: 12 		e3d18fe145568cfdef534680c99a806afb85c7d4d5de225f97c45e8dfccc6ab2
V: 12 		e5119d9e01c98655e87de7e6ee09f5dbd84b12924b52897ca35e9908d76f677b
V: 12 		e73b086602f44ba90ffab1907ae80855a45d467ddf6812762efdfaf188273ca8
V: 1- 		e758eabb5164a02889430a23790c41e7e30f82f3fd15b7b1e3cb64295521548c
V: 12 		e7d37dae9ed58807e61cdf4e4519b07ba80cded2dd372e9ab414442d4588c253
V: 12 		e9aed159269b84f3f0053f40a4a5a2d627e542d6557fc9d8802dc49e8277f734
V: 1- 		ed975e48039d5684f32a225929c2ae993f5c3475c028fbf659f761794e7820dd
V: 1- 		eea4cc42475d147ad4a66c7109c2619f7baa32828c7ae19e7313689327d3252c
V: 12 		f0170d9cefc1ac87e790cde9f68751e9d1e587de4d7b95ca55185becc640a123
V: 12 		f0757a521104fe11b580108fb54250040e59215651a62d4361bc53d1b28be152
V: 12 		f18162e0ad265b49df397893a989a2cf56d19d810aad556a29b47038bab6cfc1
V: 1- 		f1da65e32bc33c5b3f4f1d9ea3d9beae7f775d5fa759c1beddb0250ce0fb6c21
V: 12 		f23e9fff48531d56a161a236fc43b15931cf9e268006fabf5b544169cffc52d8
V: 12 		f30f3546375c22ea83bf98ea19fc1b1d57adec8c480074ee4cf8e22e473a0dfb
V: 12 		f32c519d57332c67204f2cdbc038fdeace3a2d045f3157a041ab79bd168f3d13
V: 12 		f3fcde9b1cbda2f0ea40f363b42e200be57556146dabf4e6e7427ff673961f7c
V: 12 		f641e7d9a5cf7834dfcb09ae9c529f81ad5e6e337ab9ad251f7c6d47b6bf3903
V: 1- 		f73f08b2417c67188029fffce54e6c5856cb1fa952687608ef7b0ab0a5295b59
V: 12 		f805b87b737d954472ca28a58fe63c2463f07a29f739cb829316c938f5573de4
V: 1- 		f8ee9b7b3f6a5ac4fb845fe9bfec52f2681e01a1b27bbb3d7912ade18f77b647
V: -1 		f9c221cbaa772dc9ebcd4e5fd31bd56291181e790e59d9370b18f7262dbbc4c4
V: 1- 		f9d199fd3de5cf644fd7bea7f2d3a0c49e311082167c1981ab75e252b81d74a1
V: 12 		fbb105ffa03ad7f5b86037ea28e0fed3e308743511cb00d30acc4f073cc46002
V: 1- 		fc83e4734a51fc7d7a04d2844abc1b05809f2018de31a4192e5b0f027733b777
V: 1- 		fca3b18903b7f9188ae2b1453460c6fdb1b179eedb824c1384077de3b222b1d9
V: 1- 		fde49e487008adbc89f90e773e34298868275eed81022426ba7fb74ef53a4714
V: 12 		fe5d769510c62d8b623e9ef54832ffa2247d488320c40dfbe1e7fed1b5131ead
V: 1- 		feb1b813ff77e895f9d6b52af13b1bd40a884a3f351f8c49e239070010c708b5
V: 12 		ffbcac8a31c0246e942d1145eb642b8b9c3f23c8a6e61db7f8c959d264a2a5db
